<svg xmlns="http://www.w3.org/2000/svg" xmlns:xlink="http://www.w3.org/1999/xlink" width="86.002" height="19.316" viewBox="0 0 86.002 19.316">
  <defs>
    <clipPath id="clip-path">
      <rect width="86.002" height="19.316" fill="none"/>
    </clipPath>
  </defs>
  <g id="bitcoin_grey" clip-path="url(#clip-path)">
    <path id="Subtraction_4" data-name="Subtraction 4" d="M9.665,19.316a9.7,9.7,0,0,1-2.343-.289A9.657,9.657,0,0,1,9.651,0a9.694,9.694,0,0,1,2.343.289A9.657,9.657,0,0,1,9.665,19.316ZM7.89,13.379h0c.252.069.52.139.843.219L8.3,15.332l1.059.265L9.8,13.838a7.53,7.53,0,0,0,1.385.152,2.21,2.21,0,0,0,2.351-1.582,1.856,1.856,0,0,0-.973-2.57,1.7,1.7,0,0,0,1.353-1.556c.166-1.106-.509-1.88-2.124-2.436L12.227,4.1,11.167,3.84l-.423,1.7c-.265-.066-.55-.133-.849-.2l.426-1.706L9.262,3.365,8.828,5.106,8.779,5.1c-.207-.048-.421-.1-.628-.149h0l0-.005L6.692,4.577,6.409,5.708c.512.119.764.182.77.191a.566.566,0,0,1,.494.617L7.179,8.5l.012,0c.029.009.062.019.1.032l-.112-.027-.693,2.777a.39.39,0,0,1-.36.268A.525.525,0,0,1,6,11.536c-.046,0-.763-.19-.77-.192L4.7,12.558l1.379.344c.151.038.3.076.449.115l.307.079L6.4,14.857l1.058.264L7.89,13.38Zm2.3-.924h0a7.329,7.329,0,0,1-1.751-.3l-.006,0-.2-.052L8.816,9.77c.073.018.161.038.263.061.665.15,1.9.428,2.313,1.093a.947.947,0,0,1,.1.752C11.367,12.193,10.929,12.455,10.192,12.455Zm.475-3.465h0a5.721,5.721,0,0,1-1.412-.242L9.082,8.7l.527-2.116c.061.015.134.031.219.05.541.12,1.547.343,1.9.912a.9.9,0,0,1,.1.714C11.7,8.745,11.314,8.99,10.667,8.99Z" fill="#757575"/>
    <path id="Path_335" data-name="Path 335" d="M73.278,5.853a3.879,3.879,0,0,1,1.847.416,3.8,3.8,0,0,1,1.294,1.125,4.931,4.931,0,0,1,.756,1.662,8.3,8.3,0,0,1,.243,2.053,8.937,8.937,0,0,1-.567,3.19A8.4,8.4,0,0,1,75.3,16.915a7.3,7.3,0,0,1-2.315,1.758,6.528,6.528,0,0,1-2.892.648c-.134,0-.37,0-.7-.012A9.435,9.435,0,0,1,68.25,19.2a12.373,12.373,0,0,1-1.369-.3,6.47,6.47,0,0,1-1.369-.537L69.362.6,72.811.012,71.432,6.318a5.049,5.049,0,0,1,.889-.342,3.628,3.628,0,0,1,.956-.123ZM70.385,16.317a2.816,2.816,0,0,0,1.469-.416,3.984,3.984,0,0,0,1.192-1.112,5.913,5.913,0,0,0,1.079-3.412,3.907,3.907,0,0,0-.356-1.833,1.359,1.359,0,0,0-1.314-.66,3.771,3.771,0,0,0-.811.122,1.97,1.97,0,0,0-.9.515l-1.468,6.7c.088.017.167.034.234.049a1.59,1.59,0,0,0,.21.037,2.2,2.2,0,0,0,.268.014h.4Zm10.61,2.665H77.7L80.482,6.125H83.8ZM82.6,4.559a1.926,1.926,0,0,1-1.247-.452,1.665,1.665,0,0,1-.558-1.381,2.486,2.486,0,0,1,.189-.965,2.6,2.6,0,0,1,.5-.783,2.46,2.46,0,0,1,.723-.526,2.038,2.038,0,0,1,.88-.195,1.927,1.927,0,0,1,1.245.452,1.682,1.682,0,0,1,.556,1.381,2.474,2.474,0,0,1-.19.966,2.559,2.559,0,0,1-.5.783,2.415,2.415,0,0,1-.723.525,2,2,0,0,1-.878.195Zm4.088-1.637,3.45-.587-.847,3.789h3.7l-.667,2.981H88.644l-.978,4.5a5.54,5.54,0,0,0-.156,1.05,2.087,2.087,0,0,0,.11.844,1.023,1.023,0,0,0,.478.548,2.022,2.022,0,0,0,.99.2,4.809,4.809,0,0,0,1.036-.111,6.766,6.766,0,0,0,1.011-.3l.246,2.787a11.046,11.046,0,0,1-1.447.463,7.614,7.614,0,0,1-1.848.195,4.73,4.73,0,0,1-2.382-.5A2.805,2.805,0,0,1,84.5,17.4a4.735,4.735,0,0,1-.311-1.991,14.041,14.041,0,0,1,.311-2.371L86.686,2.922Zm6.153,10.926a9.838,9.838,0,0,1,.489-3.129,7.878,7.878,0,0,1,1.4-2.568,6.625,6.625,0,0,1,2.216-1.734,6.533,6.533,0,0,1,2.9-.636,7.019,7.019,0,0,1,1.792.209,6.829,6.829,0,0,1,1.436.549l-1.136,2.837q-.454-.2-.924-.354a3.679,3.679,0,0,0-1.168-.16,3.142,3.142,0,0,0-2.616,1.246,5.324,5.324,0,0,0-.969,3.35,3.7,3.7,0,0,0,.491,2.016,1.968,1.968,0,0,0,1.8.77,5.285,5.285,0,0,0,1.247-.146,5.749,5.749,0,0,0,1.069-.366l.246,2.908a11.173,11.173,0,0,1-1.38.478,7.007,7.007,0,0,1-1.8.206,5.6,5.6,0,0,1-2.336-.439,4.462,4.462,0,0,1-1.58-1.185,4.6,4.6,0,0,1-.9-1.749,7.839,7.839,0,0,1-.28-2.1Zm14.634,5.474a4.962,4.962,0,0,1-2.049-.392,3.8,3.8,0,0,1-1.435-1.1,4.889,4.889,0,0,1-.857-1.674,7.377,7.377,0,0,1-.288-2.137,10.28,10.28,0,0,1,.433-2.935,8.627,8.627,0,0,1,1.281-2.639,7.06,7.06,0,0,1,2.069-1.921,5.289,5.289,0,0,1,2.8-.745,4.987,4.987,0,0,1,2.039.392,3.826,3.826,0,0,1,1.447,1.1,4.907,4.907,0,0,1,.855,1.675,7.381,7.381,0,0,1,.29,2.138,10.638,10.638,0,0,1-.421,2.935,8.789,8.789,0,0,1-1.247,2.639,6.73,6.73,0,0,1-2.058,1.918,5.423,5.423,0,0,1-2.86.746Zm1.646-10.461a1.961,1.961,0,0,0-1.29.463A3.909,3.909,0,0,0,106.9,10.5a6.133,6.133,0,0,0-.569,1.552,7.3,7.3,0,0,0-.188,1.6,4.228,4.228,0,0,0,.355,1.909,1.328,1.328,0,0,0,1.291.684,1.952,1.952,0,0,0,1.291-.465,3.916,3.916,0,0,0,.934-1.173,6.137,6.137,0,0,0,.569-1.552,7.412,7.412,0,0,0,.188-1.6,4.186,4.186,0,0,0-.357-1.907,1.326,1.326,0,0,0-1.291-.684Zm8.53,10.12h-3.3l2.782-12.856h3.318l-2.8,12.856Zm1.6-14.422A1.921,1.921,0,0,1,118,4.108a1.669,1.669,0,0,1-.558-1.381,2.492,2.492,0,0,1,.19-.965,2.562,2.562,0,0,1,.5-.783,2.46,2.46,0,0,1,.724-.526,2.024,2.024,0,0,1,.877-.195,1.927,1.927,0,0,1,1.247.452,1.68,1.68,0,0,1,.558,1.381,2.511,2.511,0,0,1-.191.966,2.556,2.556,0,0,1-.5.783,2.443,2.443,0,0,1-.723.525,2.006,2.006,0,0,1-.881.195Zm3.577,2.151c.25-.08.529-.177.833-.282a10.251,10.251,0,0,1,1.026-.291,11.338,11.338,0,0,1,1.268-.222,12.986,12.986,0,0,1,1.59-.087,3.835,3.835,0,0,1,3.6,1.664,6.17,6.17,0,0,1,.346,4.546L129.97,18.98h-3.316l1.469-6.8c.089-.424.159-.834.212-1.235a3.211,3.211,0,0,0-.012-1.05,1.282,1.282,0,0,0-.411-.734,1.487,1.487,0,0,0-.991-.281,6.119,6.119,0,0,0-1.312.148l-2.159,9.947h-3.317L122.826,6.71Z" transform="translate(-45.737 -0.009)" fill="#757575"/>
  </g>
</svg>
