<svg xmlns="http://www.w3.org/2000/svg" width="39.375" height="20.113" viewBox="0 0 39.375 20.113">
  <path id="Path_412" data-name="Path 412" d="M-357.208,810.25l19.556,18,18.444-18" transform="translate(357.885 -809.514)" fill="none" stroke="#fff" stroke-width="2"/>
</svg>
