<svg xmlns="http://www.w3.org/2000/svg" xmlns:xlink="http://www.w3.org/1999/xlink" width="354.015" height="64.093" viewBox="0 0 354.015 64.093">
  <defs>
    <clipPath id="clip-path">
      <rect id="Rectangle_1303" data-name="Rectangle 1303" width="354.015" height="2.503" transform="translate(302.992 -201.576)" fill="none"/>
    </clipPath>
  </defs>
  <g id="Group_1188" data-name="Group 1188" transform="translate(-302.992 263.166)">
    <path id="Path_524" data-name="Path 524" d="M311.54-238.39h20.877v-6.873H311.54V-255.92h23.229v-6.873H302.992v42.117h32.461v-6.868H311.54Z" fill="#fff"/>
    <path id="Path_525" data-name="Path 525" d="M389.231-228.883l-12.267-33.91h-9.181l16.547,42.118h9.252l16.728-42.118h-8.748Z" fill="#fff"/>
    <rect id="Rectangle_1301" data-name="Rectangle 1301" width="8.544" height="42.119" transform="translate(421.271 -262.793)" fill="#fff"/>
    <path id="Path_526" data-name="Path 526" d="M453.854-262.793h-8.543v42.117h27.128v-7.3H453.854Z" fill="#fff"/>
    <path id="Path_527" data-name="Path 527" d="M492.7-262.793h-8.544v42.117h27.129v-7.3H492.7Z" fill="#fff"/>
    <path id="Path_528" data-name="Path 528" d="M536.913-262.793l-18.292,42.117h8.729l3.407-8.421h20.91l3.408,8.421h9.111l-18-42.117Zm-3.438,27.069,7.8-19.123,7.74,19.123Z" fill="#fff"/>
    <path id="Path_529" data-name="Path 529" d="M593.407-255.92h.283a18.7,18.7,0,0,1,11.816,4.549l4.735-6.008a27.006,27.006,0,0,0-16.55-5.786c-13.135,0-23.044,9.189-23.044,21.371,0,12.255,9.668,21.494,22.486,21.494A31.684,31.684,0,0,0,610.1-225.64v-15.718H602.86V-230.2l-.336.175a20.364,20.364,0,0,1-8.77,2.423,14.158,14.158,0,0,1-14.331-13.984,14.158,14.158,0,0,1,13.984-14.331" fill="#fff"/>
    <path id="Path_530" data-name="Path 530" d="M633.1-227.544V-238.39h20.876v-6.872H633.1V-255.92h23.229v-6.873H624.55v42.117h32.457v-6.868Z" fill="#fff"/>
    <path id="Path_531" data-name="Path 531" d="M352.816-246.254a4.522,4.522,0,0,0-4.521,4.522v0a4.519,4.519,0,0,0,4.521,4.519,4.519,4.519,0,0,0,4.521-4.519v0a4.522,4.522,0,0,0-4.521-4.522" fill="#fff"/>
    <g id="Group_1183" data-name="Group 1183">
      <g id="Group_1182" data-name="Group 1182" clip-path="url(#clip-path)">
        <line id="Line_145" data-name="Line 145" x1="354.015" transform="translate(302.992 -200.324)" fill="none" stroke="#d4ae96" stroke-width="2.503"/>
      </g>
    </g>
  </g>
</svg>
