<svg xmlns="http://www.w3.org/2000/svg" xmlns:xlink="http://www.w3.org/1999/xlink" width="85.786" height="20.309" viewBox="0 0 85.786 20.309">
  <defs>
    <clipPath id="clip-path">
      <rect width="85.785" height="20.309" fill="none"/>
    </clipPath>
  </defs>
  <g id="ecredits_grey" clip-path="url(#clip-path)">
    <g id="Group_552" data-name="Group 552">
      <path id="Path_337" data-name="Path 337" d="M534.489,236.129c-.917,0-.917,0-.917.936,0,1.365,0,2.731,0,4.2a6.582,6.582,0,0,0-1.208-.72,3.7,3.7,0,0,0-4.95,2.968,8.048,8.048,0,0,0,.011,2.488,3.653,3.653,0,0,0,4.832,2.908,11.366,11.366,0,0,0,1.354-.74c.193.745.193.745,1.046.746h.154c.751,0,.752,0,.751-.735q0-5.487,0-10.974C535.562,236.051,535.674,236.128,534.489,236.129Zm-.915,9.316a2.063,2.063,0,0,1-2.95,1.742,2.967,2.967,0,0,1-.529-4.572,2.4,2.4,0,0,1,3,.13c.685.6.4,1.308.483,1.9C533.574,244.966,533.574,245.206,533.574,245.445Z" transform="translate(-468.279 -232.428)" fill="#757575"/>
      <path id="Path_338" data-name="Path 338" d="M285.572,248.063c-.807.424-1.481.847-2.206,1.146a3.858,3.858,0,0,1-4.169-1.223,4.855,4.855,0,0,1-.625-5.184,4.018,4.018,0,0,1,6.125-1.583l.707.533c.37-.414.741-.79,1.056-1.209a.53.53,0,0,0-.09-.505,5.932,5.932,0,0,0-2.486-1.354,6.247,6.247,0,0,0-7.424,3.811c-.989,2.713-.121,6.364,2.567,7.907a6.376,6.376,0,0,0,5.948.34,6.606,6.606,0,0,0,1.487-1.07.478.478,0,0,0,.061-.465C286.2,248.771,285.833,248.37,285.572,248.063Z" transform="translate(-242.827 -234.546)" fill="#757575"/>
      <path id="Path_339" data-name="Path 339" d="M-32.484,214.593a8.228,8.228,0,0,0-1.034.824,5.835,5.835,0,0,1-4.6,1.273,21.1,21.1,0,0,1-2.371-.584c.3-.338.6-.687.913-1.013.733-.756,1.48-1.5,2.218-2.249.678-.69,1.344-1.391,2.03-2.073.733-.729,1.489-1.436,2.223-2.163.784-.777,1.564-1.559,2.328-2.355a2.7,2.7,0,0,0,1.064-1.794,2.438,2.438,0,0,0-1.194-1.969,10.537,10.537,0,0,0-4.619-2.194,9.845,9.845,0,0,0-5.342.447,9.909,9.909,0,0,0-4.109,2.834,9.884,9.884,0,0,0-2.546,6.477,9.931,9.931,0,0,0,1.884,6.149c-.37.307-.743.632-1.131.936a1.856,1.856,0,0,0-.654,1.29,1.918,1.918,0,0,0,.89,1.831,2.124,2.124,0,0,0,2.229-.4c.4-.419.835-.8,1.255-1.194a1.063,1.063,0,0,0,.216.216,9.93,9.93,0,0,0,3.95,1.447,11.114,11.114,0,0,0,4.365-.281,10.533,10.533,0,0,0,4.192-2.483A1.919,1.919,0,0,0-30.083,215,1.856,1.856,0,0,0-32.484,214.593Zm-10.658-1.423c-1.047-1.4-1.253-4.962,1.042-7.332a6.332,6.332,0,0,1,7.829-1.157Z" transform="translate(47.528 -200.108)" fill="#757575"/>
      <path id="Path_340" data-name="Path 340" d="M194.624,278.894a3.984,3.984,0,0,0-5.239-1.244,4.254,4.254,0,0,0-2.073,4.459,3.849,3.849,0,0,0,1.33,2.837,4.765,4.765,0,0,0,4.985.573,2.935,2.935,0,0,0,1.4-1.122l-1.367-1.07a2.93,2.93,0,0,1-2.563.924,1.979,1.979,0,0,1-1.728-1.43c-.165-.66-.147-.683.556-.683,1.59,0,3.18-.007,4.77,0,.391,0,.573-.138.55-.54A5.747,5.747,0,0,0,194.624,278.894Zm-1.813,1.833c-.511-.026-1.024-.006-1.536-.006v.013c-.546,0-1.092,0-1.638,0-.253,0-.38-.073-.348-.359a2,2,0,0,1,1.953-1.629,1.845,1.845,0,0,1,1.977,1.485C193.273,280.574,193.207,280.747,192.811,280.727Z" transform="translate(-163.164 -269.246)" fill="#757575"/>
      <path id="Path_341" data-name="Path 341" d="M442.572,278.181a2.918,2.918,0,0,0-.8,1.17,7.028,7.028,0,0,0-.106,3.829,3.325,3.325,0,0,0,2.014,2.316,4.81,4.81,0,0,0,3.848.006,3.422,3.422,0,0,0,1.54-1.168l-1.386-1.076a2.821,2.821,0,0,1-3.242.722,1.879,1.879,0,0,1-1.148-1.88c.22-.013.42-.034.621-.034,1.591,0,3.182,0,4.773,0,.255,0,.559.037.579-.336a4.491,4.491,0,0,0-1.161-3.6A4.093,4.093,0,0,0,442.572,278.181Zm3.98,2.462c-.222,0-.445,0-.667,0h-.667v.016c-.5,0-.993-.02-1.487.006-.434.023-.493-.153-.38-.523a2.093,2.093,0,0,1,1.676-1.461,1.958,1.958,0,0,1,2.073,1.007C447.472,280.375,447.314,280.651,446.552,280.643Z" transform="translate(-391.23 -269.17)" fill="#757575"/>
      <path id="Path_342" data-name="Path 342" d="M727.808,281.238c-.661-.23-1.333-.431-2.006-.622-.446-.126-.813-.309-.8-.844.009-.559.434-.684.867-.772a3.564,3.564,0,0,1,2.574.662c.219-.417.446-.812.628-1.226.037-.084-.066-.276-.158-.361a3.178,3.178,0,0,0-2.09-.723,3.925,3.925,0,0,0-3.037.77,2.219,2.219,0,0,0,.555,3.74c.744.293,1.525.493,2.287.74a.953.953,0,0,1,.782.9.82.82,0,0,1-.692.848,3.644,3.644,0,0,1-2.311-.2c-.287-.15-.613-.469-.847-.411s-.382.488-.563.757c-.376.558-.376.561.182.943a1.764,1.764,0,0,0,.4.226,6.009,6.009,0,0,0,4.168.108,2.507,2.507,0,0,0,1.66-2.184A2.219,2.219,0,0,0,727.808,281.238Z" transform="translate(-643.617 -269.399)" fill="#757575"/>
      <path id="Path_343" data-name="Path 343" d="M658.163,260.459a.68.68,0,0,0-.135.023c-1.428.522-2.269-.059-2.279-1.583-.007-.975.006-1.95-.01-2.924,0-.3.084-.445.406-.425s.615.01.923.008c1.338-.012,1.2.2,1.211-1.31,0-.334-.132-.456-.464-.439-.529.026-1.061,0-1.59.035-.36.021-.5-.117-.483-.471.025-.632.019-1.265.048-1.9.016-.351-.117-.51-.471-.5s-.684.01-1.026,0-.5.147-.492.494c.01.6-.018,1.2.008,1.8.02.449-.143.642-.6.572a3.024,3.024,0,0,0-.307-.015c-.737-.038-.738-.038-.738.712,0,1.083-.081,1.05,1.033,1.012.483-.017.62.17.61.627-.024,1.077-.009,2.155-.008,3.232a2.859,2.859,0,0,0,3.417,3.007c1.653-.2,1.751-.28,1-1.921C658.212,260.48,658.19,260.475,658.163,260.459Z" transform="translate(-580.3 -245.75)" fill="#757575"/>
      <path id="Path_344" data-name="Path 344" d="M394.948,277.563A2.985,2.985,0,0,0,393,278.787a1.006,1.006,0,0,1-.1-.2c-.125-.9-.124-.9-1.038-.9a1.34,1.34,0,0,1-.205,0c-.458-.071-.583.129-.579.577.02,2.139,0,4.278.011,6.418.009,1.632-.251,1.392,1.461,1.417.034,0,.068,0,.1,0,.313.012.408-.143.4-.446-.022-1.351.05-2.709-.059-4.053a1.979,1.979,0,0,1,1.585-1.977c.846-.29.865-.235.868-1.165,0-.154,0-.308,0-.462C395.462,277.628,395.325,277.522,394.948,277.563Z" transform="translate(-346.025 -269.6)" fill="#757575"/>
      <path id="Path_345" data-name="Path 345" d="M623.549,278.41a3.449,3.449,0,0,1-.869-.007c-.5-.075-.62.144-.611.6.023,1.179.008,2.358.008,3.537,0,1.248.008,2.5,0,3.743,0,.385.127.578.534.555a7.6,7.6,0,0,1,.922,0c.434.029.566-.177.56-.584-.015-1.042,0-2.085-.005-3.127,0-1.4-.01-2.8.006-4.2C624.094,278.524,623.959,278.365,623.549,278.41Z" transform="translate(-553.294 -270.348)" fill="#757575"/>
      <path id="Path_346" data-name="Path 346" d="M620.583,240.212a1.293,1.293,0,0,0-1.328,1.206,1.356,1.356,0,0,0,1.24,1.268,1.236,1.236,0,0,0,1.265-1.23A1.118,1.118,0,0,0,620.583,240.212Z" transform="translate(-550.769 -236.092)" fill="#757575"/>
    </g>
  </g>
</svg>
