<svg xmlns="http://www.w3.org/2000/svg" xmlns:xlink="http://www.w3.org/1999/xlink" width="103" height="80.788" viewBox="0 0 103 80.788">
  <defs>
    <clipPath id="clip-path">
      <rect width="103" height="80.788" fill="none"/>
    </clipPath>
  </defs>
  <g id="evillage_the_forest" clip-path="url(#clip-path)">
    <g id="Group_376" data-name="Group 376" transform="translate(0.452)">
      <g id="Group_322" data-name="Group 322" transform="translate(40.99)">
        <path id="Path_284" data-name="Path 284" d="M-.343,0h20.3V1.444H-.343Z" transform="translate(0.343 30.846)" fill="#757575"/>
        <path id="Path_274" data-name="Path 274" d="M-38.259,67.768V64.5L-39.7,65.646v2.122h-3.775v17.69h20.32V67.768h-3.775V65.646L-28.377,64.5V80.24h-2.331V63.354l-1.444-1.146V81.684h5.219V69.212H-24.6v14.8H-42.034v-14.8H-39.7V81.684h5.219V62.208l-1.444,1.146V80.24h-2.331V67.768Z" transform="translate(43.484 -56.686)" fill="#757575"/>
        <path id="Path_275" data-name="Path 275" d="M-23.022,67.331V65.488l-8.88-6.3-1.161-.922-1.161.922-9.157,6.3v1.843l10.318-7.221Z" transform="translate(43.381 -58.267)" fill="#757575"/>
      </g>
      <g id="Group_323" data-name="Group 323" transform="translate(0 42.477)">
        <path id="Path_277" data-name="Path 277" d="M-6.54,99.051h6V97.076h-6V94.014H.135V92.039H-9v12.1H.331v-1.974H-6.54Z" transform="translate(8.995 -91.932)" fill="#757575"/>
        <path id="Path_278" data-name="Path 278" d="M12.2,92.039H9.561l4.754,12.1h2.659l4.807-12.1H19.267l-3.543,9.744Z" transform="translate(9.056 -91.932)" fill="#757575"/>
        <rect id="Rectangle_1119" data-name="Rectangle 1119" width="2.455" height="12.103" transform="translate(33.986 0.107)" fill="#757575"/>
        <path id="Path_279" data-name="Path 279" d="M34.221,92.039H31.766v12.1h7.8v-2.1h-5.34Z" transform="translate(9.128 -91.932)" fill="#757575"/>
        <path id="Path_280" data-name="Path 280" d="M45.347,92.039H42.892v12.1h7.8v-2.1h-5.34Z" transform="translate(9.164 -91.932)" fill="#757575"/>
        <path id="Path_281" data-name="Path 281" d="M58.019,92.039l-5.256,12.1h2.508l.979-2.42h6.009l.979,2.42h2.618l-5.171-12.1Zm-.988,7.778,2.242-5.495L61.5,99.817Z" transform="translate(9.197 -91.932)" fill="#757575"/>
        <path id="Path_282" data-name="Path 282" d="M79.041,93.594a7.76,7.76,0,0,0-4.755-1.662c-3.774,0-6.622,2.641-6.622,6.141a6.184,6.184,0,0,0,6.461,6.176A9.1,9.1,0,0,0,79,102.715V98.2H76.92V101.4l-.1.05a5.852,5.852,0,0,1-2.52.7,4.068,4.068,0,1,1-.018-8.136,5.37,5.37,0,0,1,3.4,1.307Z" transform="translate(9.245 -91.932)" fill="#757575"/>
        <path id="Path_283" data-name="Path 283" d="M85.558,99.051h6V97.076h-6V94.014h6.676V92.039H83.1v12.1h9.327v-1.974H85.558Z" transform="translate(9.296 -91.932)" fill="#757575"/>
        <rect id="Rectangle_1120" data-name="Rectangle 1120" width="2.598" height="2.599" rx="1.295" transform="translate(13.017 4.86)" fill="#757575"/>
      </g>
    </g>
    <text id="the_forest" data-name="the forest" transform="translate(0 63.788)" fill="#757575" font-size="10" font-family="Montserrat-Light, Montserrat" font-weight="300" letter-spacing="0.2em"><tspan x="10.43" y="10">the forest</tspan></text>
  </g>
</svg>
