<svg xmlns="http://www.w3.org/2000/svg" width="13.323" height="11.149" viewBox="0 0 13.323 11.149">
  <g id="Group_1411" data-name="Group 1411" transform="translate(333.252 -618.463) rotate(90)">
    <path id="Path_545" data-name="Path 545" d="M624,333V320.929" transform="translate(0 -1)" fill="none" stroke="#ECAE83" stroke-width="1"/>
    <path id="Path_546" data-name="Path 546" d="M618.828,326.965l5.21,5.556,5.21-5.556" fill="none" stroke="#ECAE83" stroke-width="1"/>
  </g>
</svg>
