<svg xmlns="http://www.w3.org/2000/svg" width="26.322" height="19.606" viewBox="0 0 26.322 19.606">
  <g id="Group_1146" data-name="Group 1146" transform="translate(-7526.5 -253)">
    <path id="ic_burger" d="M-6160,19.606v-2h26.323v2Zm0-8.718v-2h16.452v2ZM-6160,2V0h26.323V2Z" transform="translate(13686.5 253)" fill="#1b1b1c"/>
  </g>
</svg>
