<?xml version="1.0" encoding="utf-8"?>
<!-- Generator: Adobe Illustrator 23.0.3, SVG Export Plug-In . SVG Version: 6.00 Build 0)  -->
<svg version="1.1" id="Слой_1" xmlns="http://www.w3.org/2000/svg" xmlns:xlink="http://www.w3.org/1999/xlink" x="0px" y="0px"
	 viewBox="0 0 18 18" style="enable-background:new 0 0 18 18;" xml:space="preserve">
<style type="text/css">
	.st0{fill-rule:evenodd;clip-rule:evenodd;fill:#FFFFFF;}
	.st1{fill:none;}
</style>
<g>
	<g id="Symbol_13_47">
		<path id="Path_3" class="st0" d="M9,2.2c1.1,0,2.1,0,3.2,0.1c0.5,0,1,0.1,1.5,0.3c0.7,0.3,1.2,0.8,1.5,1.5c0.2,0.5,0.3,1,0.3,1.5
			c0,0.8,0.1,1.1,0.1,3.2c0,1.1,0,2.1-0.1,3.2c0,0.5-0.1,1-0.3,1.5c-0.3,0.7-0.8,1.2-1.5,1.5c-0.5,0.2-1,0.3-1.5,0.3
			c-0.8,0-1.1,0.1-3.2,0.1c-1.1,0-2.1,0-3.2-0.1c-0.5,0-1-0.1-1.5-0.3c-0.7-0.3-1.2-0.8-1.5-1.5c-0.2-0.5-0.3-1-0.3-1.5
			c0-0.8-0.1-1.1-0.1-3.2c0-1.1,0-2.1,0.1-3.2c0-0.5,0.1-1,0.3-1.5c0.2-0.3,0.4-0.6,0.6-0.9c0.2-0.3,0.5-0.5,0.9-0.6
			c0.5-0.2,1-0.3,1.5-0.3C6.9,2.2,7.9,2.2,9,2.2 M9,0.8c-1.1,0-2.2,0-3.3,0.1c-0.7,0-1.3,0.1-2,0.4c-0.5,0.2-1,0.5-1.4,0.9
			C1.9,2.5,1.6,3,1.5,3.6c-0.3,0.6-0.4,1.3-0.4,2C1,6.6,1,7.7,1,8.8c0,1.1,0,2.2,0.1,3.3c0,0.7,0.1,1.3,0.4,2c0.2,0.5,0.5,1,0.9,1.4
			c0.4,0.4,0.9,0.7,1.4,0.9c0.6,0.2,1.3,0.4,2,0.4c1.1,0.1,2.2,0.1,3.3,0.1c1.1,0,2.2,0,3.3-0.1c0.7,0,1.3-0.1,2-0.4
			c1.1-0.4,1.9-1.2,2.3-2.3c0.2-0.6,0.4-1.3,0.4-2c0-0.9,0.1-1.2,0.1-3.3c0-1.1,0-2.2-0.1-3.3c0-0.7-0.1-1.3-0.4-2
			c-0.2-0.5-0.5-1-0.9-1.4c-0.4-0.4-0.9-0.7-1.4-0.9c-0.6-0.2-1.3-0.4-2-0.4C11.2,0.8,10.1,0.8,9,0.8 M9,4.7c-2.2,0-4,1.7-4.1,3.9
			c0,0,0,0.1,0,0.1c0,2.3,1.8,4.1,4.1,4.1s4.1-1.8,4.1-4.1S11.3,4.7,9,4.7L9,4.7 M9,11.4c-1.4,0-2.6-1.1-2.7-2.6c0,0,0-0.1,0-0.1
			c0-1.4,1.1-2.6,2.6-2.7c0,0,0.1,0,0.1,0c1.4,0,2.6,1.1,2.7,2.6c0,0,0,0.1,0,0.1C11.7,10.2,10.5,11.4,9,11.4
			C9.1,11.4,9,11.4,9,11.4 M13.3,3.6c-0.5,0-1,0.4-1,1c0,0.5,0.4,1,1,1c0.5,0,1-0.4,1-1v0C14.2,4,13.8,3.6,13.3,3.6"/>
	</g>
</g>
<rect class="st1" width="18" height="18"/>
</svg>
