<svg xmlns="http://www.w3.org/2000/svg" width="147.667" height="35.443" viewBox="0 0 147.667 35.443">
  <g id="ic_logo_black" transform="translate(-145.438 -47.298)">
    <g id="Group_322" data-name="Group 322" transform="translate(145.438 47.298)">
      <path id="Path_284" data-name="Path 284" d="M-.343,0H21.944V1.585H-.343Z" transform="translate(0.343 33.858)" fill="#262834"/>
      <path id="Path_274" data-name="Path 274" d="M-37.749,68.311V64.724l-1.585,1.258v2.329h-4.144V87.73h22.3V68.311h-4.144V65.982L-26.9,64.724V82h-2.559V63.466l-1.585-1.258V83.586h5.729V69.9h2.559V86.145H-41.893V69.9h2.559v13.69h5.729V62.208l-1.585,1.258V82h-2.559V68.311Z" transform="translate(43.484 -56.147)" fill="#262834"/>
      <path id="Path_275" data-name="Path 275" d="M-21.033,68.217V66.193l-9.747-6.915-1.275-1.012-1.275,1.012-10.052,6.915v2.023l11.326-7.926Z" transform="translate(43.381 -58.267)" fill="#262834"/>
    </g>
    <g id="Group_323" data-name="Group 323" transform="translate(181.444 58.298)">
      <path id="Path_277" data-name="Path 277" d="M-6.3,99.736H.285V97.568H-6.3V94.207H1.027V92.039H-9v13.285H1.242v-2.166H-6.3Z" transform="translate(8.995 -91.921)" fill="#262834"/>
      <path id="Path_278" data-name="Path 278" d="M12.457,92.039h-2.9l5.218,13.285H17.7l5.277-13.285H20.215l-3.889,10.7Z" transform="translate(10.874 -91.921)" fill="#262834"/>
      <rect id="Rectangle_1119" data-name="Rectangle 1119" width="2.695" height="13.285" transform="translate(37.306 0.118)" fill="#262834"/>
      <path id="Path_279" data-name="Path 279" d="M34.461,92.039H31.766v13.285h8.557v-2.3H34.461Z" transform="translate(13.122 -91.921)" fill="#262834"/>
      <path id="Path_280" data-name="Path 280" d="M45.587,92.039H42.892v13.285h8.557v-2.3H45.587Z" transform="translate(14.249 -91.921)" fill="#262834"/>
      <path id="Path_281" data-name="Path 281" d="M58.532,92.039l-5.769,13.284h2.753l1.075-2.656h6.6l1.075,2.656h2.873L61.458,92.039Zm-1.085,8.538,2.461-6.032,2.44,6.032Z" transform="translate(15.248 -91.921)" fill="#262834"/>
      <path id="Path_282" data-name="Path 282" d="M80.152,93.757a8.518,8.518,0,0,0-5.22-1.825c-4.143,0-7.268,2.9-7.268,6.741a6.788,6.788,0,0,0,7.092,6.779,9.993,9.993,0,0,0,5.353-1.684V98.81H77.824v3.518l-.106.055a6.424,6.424,0,0,1-2.766.764,4.466,4.466,0,1,1-.02-8.931,5.9,5.9,0,0,1,3.727,1.435Z" transform="translate(16.757 -91.932)" fill="#262834"/>
      <path id="Path_283" data-name="Path 283" d="M85.8,99.736h6.585V97.568H85.8V94.207h7.328V92.039H83.1v13.285H93.34v-2.166H85.8Z" transform="translate(18.32 -91.921)" fill="#262834"/>
      <rect id="Rectangle_1120" data-name="Rectangle 1120" width="2.852" height="2.853" rx="1.295" transform="translate(14.288 5.334)" fill="#262834"/>
    </g>
  </g>
</svg>
