<svg xmlns="http://www.w3.org/2000/svg" width="52" height="69.034" viewBox="0 0 52 69.034">
  <g id="Group_919" data-name="Group 919" opacity="0.15">
    <path id="Path_469" data-name="Path 469" d="M441.993,317.542c-.927-13.763-8.077-27.212-21.294-40.056-1.383-1.346-2.57-2.464-2.64-2.485a3.216,3.216,0,0,0,.286,1.182,29.139,29.139,0,0,1,1.244,6.256c.538,7.266-.446,15.718-9.975,20.9-1.448.734-1.314.587-1.6.332a10.472,10.472,0,0,1-1.763-2.541,15.093,15.093,0,0,1-1.456-5.889l-.165-1.73-1.655,1.937a72.748,72.748,0,0,0-5.387,7.14c-9.174,13.85-10.079,26.487-2.444,34.193,6,5.859,13.75,8.457,24.965,6.735C433.253,341.725,442.284,333.316,441.993,317.542Z" transform="translate(-390 -275)"/>
  </g>
</svg>
