<svg xmlns="http://www.w3.org/2000/svg" width="16.358" height="16" viewBox="0 0 16.358 16">
  <g id="ic_youtube" transform="translate(0 0)">
    <path id="Path_473" data-name="Path 473" d="M17.193,28.21H6.811A2.989,2.989,0,0,0,3.823,31.2v2.4a2.989,2.989,0,0,0,2.988,2.989H17.193A2.989,2.989,0,0,0,20.181,33.6V31.2A2.989,2.989,0,0,0,17.193,28.21Zm-8.2,1.87H8.027v4.8H7.094v-4.8H6.13v-.816H8.992v.816Zm2.726,4.8h-.827v-.454a1.77,1.77,0,0,1-.478.382,1,1,0,0,1-.481.132.515.515,0,0,1-.433-.185.893.893,0,0,1-.145-.555V30.735h.827v3.176a.354.354,0,0,0,.051.212.2.2,0,0,0,.17.066.47.47,0,0,0,.23-.087,1.117,1.117,0,0,0,.257-.223V30.735h.827Zm3-.855a1.032,1.032,0,0,1-.195.674.687.687,0,0,1-.562.234.986.986,0,0,1-.433-.09,1.063,1.063,0,0,1-.354-.28v.317H12.34V29.264h.837v1.807a1.291,1.291,0,0,1,.354-.287.812.812,0,0,1,.382-.1.715.715,0,0,1,.6.264,1.233,1.233,0,0,1,.208.774v2.3Zm2.869-1.116H16.008v.78a.9.9,0,0,0,.081.453.309.309,0,0,0,.281.126.342.342,0,0,0,.288-.107.894.894,0,0,0,.082-.472V33.5h.851v.212a1.327,1.327,0,0,1-.312.96,1.233,1.233,0,0,1-.928.32,1.141,1.141,0,0,1-.876-.341,1.322,1.322,0,0,1-.32-.939V31.85a1.168,1.168,0,0,1,.353-.878,1.248,1.248,0,0,1,.905-.339,1.161,1.161,0,0,1,.873.314,1.244,1.244,0,0,1,.3.9Z" transform="translate(-3.823 -20.589)" fill="#1b1b1c"/>
    <path id="Path_474" data-name="Path 474" d="M40.728,37.646a.328.328,0,0,0-.283.114.6.6,0,0,0-.086.371v.419h.731v-.419A.606.606,0,0,0,41,37.76.317.317,0,0,0,40.728,37.646Z" transform="translate(-28.173 -26.878)" fill="#1b1b1c"/>
    <path id="Path_475" data-name="Path 475" d="M32.218,37.6a.408.408,0,0,0-.175.04.592.592,0,0,0-.171.127V40.35a.707.707,0,0,0,.2.147.486.486,0,0,0,.2.044.269.269,0,0,0,.223-.089.454.454,0,0,0,.071-.285V38.03a.5.5,0,0,0-.087-.319A.32.32,0,0,0,32.218,37.6Z" transform="translate(-22.517 -26.85)" fill="#1b1b1c"/>
    <path id="Path_476" data-name="Path 476" d="M14.362,11.543h1.049V8.978L16.632,5.36H15.566l-.649,2.471h-.066L14.169,5.36H13.113l1.249,3.733Z" transform="translate(-10.015 -5.36)" fill="#1b1b1c"/>
    <path id="Path_477" data-name="Path 477" d="M25.234,14.669a1.419,1.419,0,0,0,1-.333,1.189,1.189,0,0,0,.361-.918V11.062a1.1,1.1,0,0,0-.368-.853,1.373,1.373,0,0,0-.949-.331,1.53,1.53,0,0,0-1.012.314,1.043,1.043,0,0,0-.376.844V13.4a1.208,1.208,0,0,0,.367.925A1.374,1.374,0,0,0,25.234,14.669ZM24.848,11a.31.31,0,0,1,.105-.242.413.413,0,0,1,.278-.091.461.461,0,0,1,.3.091.3.3,0,0,1,.113.242v2.485a.375.375,0,0,1-.112.288.42.42,0,0,1-.3.1.374.374,0,0,1-.285-.1.4.4,0,0,1-.1-.289V11Z" transform="translate(-17.197 -8.371)" fill="#1b1b1c"/>
    <path id="Path_478" data-name="Path 478" d="M34.915,14.851a1.172,1.172,0,0,0,.54-.146,1.975,1.975,0,0,0,.537-.426v.505h.932V10.224h-.932v3.462a1.289,1.289,0,0,1-.286.245.54.54,0,0,1-.26.1.224.224,0,0,1-.189-.074.373.373,0,0,1-.06-.233v-3.5h-.93v3.812a.962.962,0,0,0,.163.61A.587.587,0,0,0,34.915,14.851Z" transform="translate(-24.112 -8.602)" fill="#1b1b1c"/>
  </g>
</svg>
