<?xml version="1.0" encoding="utf-8"?>
<!-- Generator: Adobe Illustrator 23.0.6, SVG Export Plug-In . SVG Version: 6.00 Build 0)  -->
<svg version="1.1" xmlns="http://www.w3.org/2000/svg" xmlns:xlink="http://www.w3.org/1999/xlink" x="0px" y="0px"
	 viewBox="0 0 530 278.3" style="enable-background:new 0 0 530 278.3;" xml:space="preserve">
<style type="text/css">
	.st0{fill:#FFFFFF;}
	.st1{clip-path:url(#SVGID_2_);fill:none;stroke:#D4AE96;stroke-width:3.62;}
</style>
<g id="Слой_1">
	<g>
		<polygon class="st0" points="21.4,186.6 51.6,186.6 51.6,176.7 21.4,176.7 21.4,161.2 55,161.2 55,151.3 9,151.3 9,212.2 
			55.9,212.2 55.9,202.3 21.4,202.3 		"/>
		<polygon class="st0" points="133.7,200.3 116,151.3 102.7,151.3 126.6,212.2 140,212.2 164.2,151.3 151.6,151.3 		"/>
		<rect x="180.1" y="151.3" class="st0" width="12.4" height="60.9"/>
		<polygon class="st0" points="227.2,151.3 214.8,151.3 214.8,212.2 254.1,212.2 254.1,201.7 227.2,201.7 		"/>
		<polygon class="st0" points="283.4,151.3 271,151.3 271,212.2 310.3,212.2 310.3,201.7 283.4,201.7 		"/>
		<path class="st0" d="M347.3,151.3l-26.5,60.9h12.6l4.9-12.2h30.2l4.9,12.2h13.2l-26-60.9H347.3z M342.3,190.5l11.3-27.7l11.2,27.7
			H342.3z"/>
		<path class="st0" d="M429,161.2c0.1,0,0.3,0,0.4,0c6.3,0.1,12.3,2.5,17.1,6.6l6.8-8.7c-6.8-5.4-15.2-8.3-23.9-8.4
			c-19,0-33.3,13.3-33.3,30.9c0,17.7,14,31.1,32.5,31.1c8.7-0.2,17.3-2.9,24.5-7.7v-22.7h-10.5v16.1l-0.5,0.3
			c-3.9,2.1-8.2,3.3-12.7,3.5c-11.3,0.1-20.6-8.9-20.7-20.2C408.7,170.7,417.7,161.4,429,161.2"/>
		<polygon class="st0" points="486.4,202.3 486.4,186.6 516.6,186.6 516.6,176.7 486.4,176.7 486.4,161.2 520,161.2 520,151.3 
			474.1,151.3 474.1,212.2 521,212.2 521,202.3 		"/>
		<path class="st0" d="M81.1,175.2c-3.6,0-6.5,2.9-6.5,6.5v0c0,3.6,2.9,6.5,6.5,6.5c3.6,0,6.5-2.9,6.5-6.5v0
			C87.6,178.2,84.7,175.2,81.1,175.2"/>
		<g>
			<rect x="239.4" y="115.4" class="st0" width="51.1" height="3.6"/>
			<polygon class="st0" points="265.4,34.8 262.5,37.1 239.4,52.9 239.4,57.6 265.4,39.4 290.6,57.6 290.6,52.9 268.3,37.1 			"/>
			<polygon class="st0" points="281.1,58 277.5,55.4 277.5,96.5 271.6,96.5 271.6,51.2 268,48.6 268,100.1 281.1,100.1 281.1,68.8 
				287,68.8 287,106 265.1,106 243,106 243,68.8 248.9,68.8 248.9,100.1 262,100.1 262,48.6 258.4,51.2 258.4,96.5 252.5,96.5 
				252.5,55.4 248.9,58 248.9,65.2 239.4,65.2 239.4,109.6 265.1,109.6 288.9,109.6 290.6,109.6 290.6,65.2 281.1,65.2 			"/>
		</g>
		<g>
			<defs>
				<rect id="SVGID_1_" x="9" y="239.8" width="512" height="3.6"/>
			</defs>
			<clipPath id="SVGID_2_">
				<use xlink:href="#SVGID_1_"  style="overflow:visible;"/>
			</clipPath>
			<line class="st1" x1="521" y1="241.7" x2="9" y2="241.7"/>
		</g>
	</g>
</g>
<g id="Слой_2">
</g>
</svg>
