<svg xmlns="http://www.w3.org/2000/svg" width="29" height="31" viewBox="0 0 29 31">
  <g id="Group_1405" data-name="Group 1405" transform="translate(-428 -532)">
    <g id="Rectangle_1163" data-name="Rectangle 1163" transform="translate(433 545)" fill="#ecae83" stroke="#fff" stroke-width="2">
      <rect width="18" height="18" stroke="none"/>
      <rect x="1" y="1" width="16" height="16" fill="none"/>
    </g>
    <g id="Polygon_4" data-name="Polygon 4" transform="translate(428 532)" fill="#ecae83">
      <path d="M 26.64249038696289 14 L 2.35750937461853 14 L 14.5 1.438802719116211 L 26.64249038696289 14 Z" stroke="none"/>
      <path d="M 14.5 2.877605438232422 L 4.715019226074219 13 L 24.28498077392578 13 L 14.5 2.877605438232422 M 14.5 0 L 29 15 L 0 15 L 14.5 0 Z" stroke="none" fill="#fff"/>
    </g>
  </g>
</svg>
