<svg xmlns="http://www.w3.org/2000/svg" xmlns:xlink="http://www.w3.org/1999/xlink" width="83.802" height="20.203" viewBox="0 0 83.802 20.203">
  <defs>
    <clipPath id="clip-path">
      <rect width="83.802" height="20.203" fill="none"/>
    </clipPath>
  </defs>
  <g id="onecoin_grey" data-name="onecoin grey" clip-path="url(#clip-path)">
    <g id="Group_979" data-name="Group 979" transform="translate(-39.598 -16.498)">
      <path id="Path_480" data-name="Path 480" d="M63.5,26.3V23.2a1.9,1.9,0,0,1,1.6-2.1,11.017,11.017,0,0,1,5.7,0,2,2,0,0,1,1.6,2.2v6a2,2,0,0,1-1.7,2.2,10.641,10.641,0,0,1-5.6,0,1.943,1.943,0,0,1-1.7-2.2C63.4,28.3,63.5,27.3,63.5,26.3Zm6.6,0V23.6a.919.919,0,0,0-.9-1,11.3,11.3,0,0,0-2.6,0c-.6,0-.9.4-.9,1V29a.908.908,0,0,0,.8,1,12.187,12.187,0,0,0,2.7,0c.6,0,.9-.4.9-1A24.319,24.319,0,0,0,70.1,26.3Z" fill="#757575"/>
      <path id="Path_481" data-name="Path 481" d="M101.4,24.3H99.2v-.7a.876.876,0,0,0-.7-.9,7.083,7.083,0,0,0-2.9,0,.908.908,0,0,0-.8,1V29a.955.955,0,0,0,.9,1.1,11.3,11.3,0,0,0,2.6,0c.7-.1.9-.4.9-1.1V28h2.3a13.4,13.4,0,0,1-.1,2,1.635,1.635,0,0,1-1.1,1.4,4.711,4.711,0,0,1-1.7.4,12.46,12.46,0,0,1-4.3-.2,1.9,1.9,0,0,1-1.7-2.1V23.2a1.831,1.831,0,0,1,1.3-1.8,4.711,4.711,0,0,1,1.7-.4c1.3,0,2.5,0,3.8.1,1.6.2,2.1,1,2.1,2.6A1.268,1.268,0,0,0,101.4,24.3Z" fill="#757575"/>
      <path id="Path_482" data-name="Path 482" d="M89.1,29.1h2a1.906,1.906,0,0,1-1.2,2.2,8.823,8.823,0,0,1-3.6.3,8.585,8.585,0,0,1-1.7-.3,1.936,1.936,0,0,1-1.5-2V26.5c0-1.7.6-2.4,2.3-2.7a9.678,9.678,0,0,1,3.8.1,2.18,2.18,0,0,1,2,2.2v2.3H85.3c-.2,1.2.2,1.8,1.3,1.9h1.1C88.6,30.2,88.8,30,89.1,29.1ZM89,26.9c.2-1.2-.3-1.8-1.4-1.8H86.5q-1.65.15-1.2,1.8Z" fill="#757575"/>
      <path id="Path_483" data-name="Path 483" d="M102.7,27.7V26.4a2.2,2.2,0,0,1,2-2.5,9.357,9.357,0,0,1,4.4.1,1.934,1.934,0,0,1,1.6,1.9v3.8a1.805,1.805,0,0,1-1.4,1.7,7.756,7.756,0,0,1-3.4.3,4.529,4.529,0,0,1-1.6-.3,1.963,1.963,0,0,1-1.6-2.1,8.552,8.552,0,0,1,0-1.6Zm5.8,0V26.3a1.009,1.009,0,0,0-.9-1.1,6.054,6.054,0,0,0-1.9,0,.919.919,0,0,0-.9,1V29a.919.919,0,0,0,.9,1,6.054,6.054,0,0,0,1.9,0c.6-.1.8-.4.9-1A5.578,5.578,0,0,0,108.5,27.7Z" fill="#757575"/>
      <path id="Path_484" data-name="Path 484" d="M73.7,23.9h2.1v.6a4.809,4.809,0,0,1,4.2-.6A2.046,2.046,0,0,1,81.7,26v5.5H79.5V26.8c0-1.1-.3-1.4-1.4-1.6h-.5c-1.3.1-1.8.6-1.8,1.9v4.4H73.6C73.7,29,73.7,26.5,73.7,23.9Z" fill="#757575"/>
      <path id="Path_485" data-name="Path 485" d="M115.5,23.9h2v.6a4.809,4.809,0,0,1,4.2-.6,2.046,2.046,0,0,1,1.7,2.1v5.4h-2.1V26.6c0-1-.3-1.3-1.3-1.5-.2,0-.5-.1-.7,0a1.636,1.636,0,0,0-1.7,1.9v4.4h-2.1Z" fill="#757575"/>
      <path id="Path_486" data-name="Path 486" d="M114.2,23.9v7.6h-2.1V23.9Z" fill="#757575"/>
      <path id="Path_487" data-name="Path 487" d="M114.3,21.8a1.309,1.309,0,0,1-1.2,1.3,1.24,1.24,0,0,1-1.2-1.3,1.324,1.324,0,0,1,1.3-1.3A1.3,1.3,0,0,1,114.3,21.8Z" fill="#757575"/>
    </g>
    <g id="Group_980" data-name="Group 980" transform="translate(-39.598 -16.498)">
      <path id="Path_488" data-name="Path 488" d="M59.8,26.7A10.1,10.1,0,1,1,50,16.5,10.164,10.164,0,0,1,59.8,26.7Zm-9.3-5.9c0-.4.1-.8.1-1.2.1-1,.1-1-.9-1.1h0a24.369,24.369,0,0,0-2.7-.1A1.923,1.923,0,0,0,45.2,20c-.1.6-.2,1.1-.3,1.7-.5,3.2-1.1,6.4-1.6,9.5a2.3,2.3,0,0,0,2.5,3c1.3-.1,2.6-.3,3.9-.5a.451.451,0,0,0,.3-.3c.1-1.1.1-2.2.2-3.3h-.8c.2-3.1.4-6.1.6-9.1C50.1,20.8,50.3,20.8,50.5,20.8Zm.1,12.6c1.2-.2,2.3-.3,3.5-.5A2.668,2.668,0,0,0,56.2,30c-.1-1.5-.2-3-.3-4.4,0-.7-.1-.8-.7-.8H52.1c-.4,0-.5.2-.6.6,0,1.4-.1,2.8-.1,4.2v.2c-.1,0-.2.1-.3.1-.4,0-.5.2-.5.5v.5C50.6,31.7,50.6,32.5,50.6,33.4Zm5.2-9.1v-.7c-.1-.9-.1-1.8-.2-2.7a1.9,1.9,0,0,0-1.8-2c-.8-.1-1.5-.1-2.3-.2-.3,0-.4.1-.4.4a3.75,3.75,0,0,1-.1,1.1c0,.4-.1.8.6.7v.3a19.269,19.269,0,0,1-.1,2.4c0,.6,0,.6.6.6h2.4C55,24.2,55.4,24.3,55.8,24.3Z" fill="#757575"/>
    </g>
  </g>
</svg>
